28407,7351,34757,27620,33174,25076,26319,31990,29091,28006,30207
28429,7243,34744,27751,33254,25262,26341,32006,29096,28023,30229
28462,7285,34780,27667,33165,25120,26284,31994,29009,27969,30220
28470,7288,34791,27710,33233,25146,26309,32058,29144,28008,30244
28001,6937,34426,27788,33278,25172,26362,31994,29085,28067,30065
28446,7275,34786,27728,33255,25204,26284,32076,29103,28001,30233
28442,7243,34789,27695,33143,25169,26280,31945,29041,27923,30214
28449,7223,34815,27728,33218,25179,26383,31997,29149,28014,30227
28443,7273,34720,27656,33154,25130,26325,31980,29083,28041,30210
28417,7204,34780,27688,33221,25149,26320,32024,29099,28067,30205
28434,7256,34792,27678,33178,25203,26301,32023,29087,28098,30234
28009,7001,34496,27651,33164,25102,26283,31974,29082,28017,30046
28419,7310,34753,27698,33211,25153,26334,31972,29070,28010,30222
28434,7260,34742,27717,33225,25213,26321,32114,29161,28108,30219
28450,7260,34793,27679,33132,25150,26302,32023,29096,28014,30200
28476,7259,34818,27757,33244,25204,26295,31960,29026,27977,30230
28404,7292,34760,27643,33207,25187,26339,32020,29052,27984,30233
28391,7286,34828,27684,33212,25196,26285,32040,29194,28024,30219
28430,7208,34854,27657,33260,25167,26368,32086,29088,28010,30234
28426,7318,34759,27719,33307,25236,26383,32101,29094,28069,30217
28467,7275,34763,27689,33262,25207,26312,31912,29045,28002,30220
28431,7302,34848,27701,33227,25196,26311,32021,29063,28053,30221
28445,7289,34789,27708,33216,25209,26308,31971,29023,27950,30210
28414,7263,34771,27675,33260,25192,26365,32053,29142,28086,30208
28458,7281,34868,27728,33189,25165,26366,31987,29034,27994,30224
28440,7268,34773,27724,33258,25108,26334,32041,29005,28027,30208
28483,7264,34774,27675,33176,25130,26338,32057,29059,28004,30230
27983,6976,34576,27676,33147,25115,26293,31937,29010,27945,30063
28438,7288,34805,27634,33156,25134,26297,31970,28999,27964,30222
28426,7300,34773,27656,33233,25165,26299,31945,29034,28038,30211
28427,7294,34797,27699,33225,25142,26273,32021,29082,28021,30205
28430,7256,34783,27654,33232,25175,26290,32002,29093,27943,30217
28462,7247,34745,27729,33200,25210,26271,32027,29103,27969,30215
28435,7298,34806,27722,33275,25190,26349,32036,29121,28006,30209
28424,7283,34763,27649,33224,25108,26257,32075,29147,28041,30220
27954,7105,34461,27660,33190,25160,26241,31964,29061,28072,30054
28446,7245,34813,27730,33242,25226,26362,32021,29073,28083,30176
28438,7289,34787,27650,33167,25152,26317,31981,29059,28088,30212
28459,7244,34757,27656,33237,25085,26242,32010,29101,28027,30190
28433,7284,34801,27638,33227,25070,26319,32042,29023,27953,30209
28468,7243,34756,27639,33223,25123,26260,31948,29024,28014,30193
28421,7276,34772,27735,33182,25291,26376,32081,29051,28020,30196
28407,7255,34774,27639,33201,25147,26273,31996,29012,28061,30198
27983,7015,34469,27719,33227,25134,26327,31963,29009,28037,30033
28432,7272,34765,27658,33233,25232,26333,31986,29006,28010,30193
28415,7267,34778,27678,33191,25121,26268,31992,28996,27965,30215
28437,7261,34785,27665,33229,25115,26312,31979,29073,28017,30198
28449,7201,34740,27606,33155,25118,26281,31972,29060,27975,30185
28413,7281,34798,27658,33109,25085,26198,31906,28944,27930,30204
28415,7269,34828,27672,33197,25095,26235,31939,29023,27919,30161
28448,7268,34672,27715,33196,25123,26281,31982,29009,27939,30202
28428,7256,34780,27659,33280,25148,26318,31961,29031,28000,30204
28405,7294,34780,27641,33210,25171,26304,31999,29052,28008,30211
28445,7316,34732,27743,33235,25285,26399,31997,29127,28015,30211
28449,7253,34760,27711,33308,25150,26315,32012,29146,28089,30203
28431,7285,34777,27771,33251,25211,26340,32008,29064,27984,30179
28444,7207,34855,27673,33216,25176,26286,32025,29098,27977,30177
27972,6966,34516,27622,33216,25167,26355,32058,29116,28052,30033
28429,7260,34734,27678,33221,25209,26339,31966,29036,28014,30194
28398,7263,34800,27577,33173,25156,26335,32031,29066,28038,30182
28438,7292,34832,27746,33203,25229,26363,32021,29128,28021,30187
28432,7324,34751,27643,33244,25180,26304,31984,29031,27943,30189
28437,7249,34731,27749,33200,25243,26351,32078,29086,28047,30222
28437,7250,34757,27700,33283,25318,26374,32171,29225,28124,30188
28427,7311,34734,27767,33210,25173,26328,32041,29106,28000,30184
27974,6959,34436,27664,33248,25232,26378,32076,29128,28078,29998
28438,7312,34768,27680,33215,25193,26346,32034,29098,28075,30184
28441,7267,34826,27677,33198,25210,26305,32053,29070,28004,30196
28444,7301,34744,27775,33229,25223,26277,31994,29051,28008,30193
28395,7319,34823,27675,33198,25146,26265,31996,29040,27969,30190
28439,7283,34825,27669,33181,25118,26253,31990,29046,27969,30182
28478,7241,34781,27675,33157,25197,26269,32016,29067,28047,30201
28451,7280,34748,27658,33173,25137,26353,32005,29089,28041,30181
27992,6971,34597,27696,33303,25235,26343,32048,29046,27996,30006
28472,7281,34812,27782,33203,25213,26308,32061,29055,28014,30170
28455,7252,34823,27732,33225,25116,26312,31983,28995,27934,30180
28492,7286,34765,27687,33195,25211,26307,31966,29051,27967,30187
28445,7249,34862,27618,33215,25151,26272,32000,29083,27988,30169
28476,7253,34760,27666,33305,25182,26356,32050,29112,28044,30188
28421,7254,34779,27666,33229,25159,26310,31975,29067,27916,30193
27983,7042,34395,27683,33273,25158,26389,31998,29101,28012,30021
28423,7248,34844,27752,33184,25215,26328,32040,29109,28026,30180
28457,7272,34832,27722,33226,25167,26272,32008,29056,27978,30184
28417,7259,34744,27602,33181,25110,26251,31950,29030,27989,30195
28398,7309,34772,27610,33151,25117,26278,32000,29028,27967,30167
28444,7258,34788,27675,33204,25166,26339,32041,29027,27981,30193
28440,7272,34828,27743,33197,25131,26333,32016,29094,28005,30176
28458,7281,34722,27706,33206,25228,26254,32016,29078,27996,30184
27988,7000,34455,27726,33204,25142,26336,32051,29125,28003,30022
28419,7272,34798,27683,33255,25158,26336,32076,29106,28002,30177
28395,7273,34736,27713,33245,25144,26359,32046,29079,28001,30203
28445,7295,34694,27612,33111,25125,26247,31981,29042,27937,30190
28485,7232,34774,27661,33228,25113,26293,32000,29055,27977,30175
28448,7272,34783,27669,33236,25148,26374,31957,29100,27976,30177
28471,7297,34833,27686,33233,25221,26343,32021,29094,28020,30193
28467,7257,34795,27711,33240,25181,26306,31996,29070,27983,30198
28423,7258,34813,27705,33220,25145,26387,31998,29064,28012,30188
28438,7259,34809,27717,33244,25177,26306,31972,29094,28049,30191
28414,7272,34759,27699,33169,25103,26307,32020,29050,27999,30182
28405,7291,34799,27645,33198,25169,26235,31981,29039,28002,30192
28438,7241,34752,27742,33186,25131,26256,31942,29071,27991,30187
28454,7321,34783,27652,33197,25123,26265,31917,29018,27921,30171
28446,7272,34724,27632,33167,25185,26331,32076,29054,27989,30167
28010,6992,34422,27590,33147,25137,26276,31977,29012,27913,30021
28455,7274,34828,27662,33163,25159,26343,31993,28974,27934,30192
28453,7297,34893,27566,33198,25195,26329,31980,29033,28016,30189
28459,7280,34803,27663,33140,25138,26376,31996,29063,28016,30193
28472,7260,34858,27652,33231,25100,26285,31983,29032,27965,30173
28458,7312,34788,27630,33136,25106,26265,32014,28995,27993,30189
28448,7285,34740,27641,33179,25187,26300,31947,29025,27925,30198
28397,7248,34763,27720,33171,25145,26308,32017,29053,27923,30194
27953,6975,34465,27579,33154,25157,26309,31936,29034,27966,30027
28462,7273,34733,27739,33197,25082,26237,31987,29060,27970,30154
28446,7314,34764,27647,33243,25146,26294,31931,29035,27928,30168
28403,7335,34764,27642,33119,25091,26262,31976,29034,27946,30174
28427,7250,34834,27661,33217,25135,26250,31980,29052,27944,30193
28455,7273,34739,27675,33188,25148,26312,32008,29113,28020,30171
28438,7267,34777,27714,33233,25163,26317,31995,29046,27977,30180
28451,7273,34827,27719,33169,25186,26312,31936,29009,27952,30169
27998,6914,34344,27692,33168,25166,26364,32015,29103,28046,30007
28431,7236,34769,27729,33313,25163,26348,32018,29106,28080,30181
28442,7271,34769,27723,33243,25156,26367,31986,29036,27975,30172
28462,7259,34803,27619,33184,25163,26346,32042,29075,27984,30170
28432,7303,34765,27671,33188,25236,26335,31982,29038,28020,30173
28472,7264,34737,27672,33158,25131,26228,32042,28996,27992,30164
28490,7270,34900,27686,33249,25181,26337,32027,29023,28034,30167
28419,7304,34755,27633,33161,25195,26322,32032,29029,27990,30167
28468,7262,34855,27649,33199,25144,26310,31932,29054,28021,30183
28417,7215,34731,27714,33209,25187,26319,31993,29046,27993,30175
28412,7267,34729,27687,33223,25217,26321,31959,29056,28036,30173
28447,7299,34788,27623,33230,25199,26300,31941,29070,28022,30178
28438,7283,34753,27723,33300,25233,26330,31970,29031,27934,30189
28413,7268,34687,27688,33190,25182,26363,32022,29060,28046,30188
28452,7278,34825,27744,33231,25210,26314,32032,28988,27972,30163
27980,6970,34422,27769,33344,25213,26393,32097,29102,27997,30022
28472,7288,34740,27629,33198,25173,26284,31961,29105,28019,30169
28443,7246,34749,27679,33224,25173,26396,32034,29117,28003,30165
28438,7225,34782,27680,33243,25129,26320,31970,29050,27949,30175
28438,7232,34754,27623,33179,25094,26289,31930,28984,27955,30176
28429,7239,34719,27617,33233,25072,26228,32023,28997,28019,30169
28435,7256,34769,27644,33159,25169,26316,31957,29016,27961,30162
28447,7231,34765,27581,33109,25181,26331,31997,29064,27999,30172
27972,6976,34453,27651,33183,25137,26277,31903,29090,27964,30013
28442,7269,34763,27669,33123,25094,26245,31997,29060,27989,30164
28404,7316,34713,27604,33210,25179,26267,31999,29115,28040,30157
28451,7284,34785,27685,33245,25180,26260,31991,29019,27954,30163
28429,7291,34828,27645,33214,25199,26317,31930,29047,27994,30186
28449,7218,34715,27619,33206,25138,26303,32006,29090,28001,30155
28449,7306,34722,27648,33239,25206,26302,32058,29095,28020,30181
28441,7261,34823,27597,33182,25086,26346,31963,29034,28001,30163
27984,6961,34468,27679,33193,25129,26324,32026,29131,28012,30008
28456,7256,34801,27601,33222,25124,26336,31996,29110,28023,30181
28427,7251,34821,27677,33120,25065,26250,31909,29031,27990,30170
28416,7296,34783,27617,33195,25121,26302,32009,29048,27967,30150
28437,7333,34795,27677,33181,25179,26400,32014,29047,27989,30168
28457,7284,34816,27709,33223,25154,26298,32087,29062,28033,30159
28439,7320,34774,27693,33264,25129,26310,31965,29015,28039,30162
28006,6979,34397,27653,33189,25201,26317,31936,29044,28024,29988
28445,7240,34749,27629,33149,25155,26286,32006,29067,27996,30161
28429,7261,34793,27666,33225,25160,26330,31964,29029,28038,30174
28415,7293,34761,27753,33271,25179,26343,32004,29029,27967,30160
28457,7279,34760,27660,33207,25135,26255,31926,29028,28080,30150
28440,7345,34769,27683,33294,25126,26311,32040,29091,28048,30141
28434,7275,34821,27630,33285,25149,26327,32034,29060,27985,30155
28447,7275,34818,27706,33227,25251,26311,32022,29025,27997,30154
27973,7002,34506,27685,33179,25208,26333,31944,29089,28075,29976
28444,7278,34846,27619,33194,25126,26350,32020,29076,27977,30154
28437,7261,34795,27577,33185,25152,26211,31950,29000,27962,30140
28455,7270,34786,27697,33283,25240,26343,32017,29064,28046,30138
28412,7287,34817,27666,33142,25171,26270,31971,29059,27958,30145
28437,7230,34794,27693,33225,25161,26331,32023,29109,28049,30157
28427,7296,34736,27716,33141,25151,26294,31947,29064,27992,30132
27950,6963,34421,27691,33115,25075,26224,31926,29080,28023,29977
28427,7235,34792,27625,33163,25111,26240,31983,29007,27985,30135
28431,7264,34750,27676,33151,25159,26292,31893,29006,27960,30160
28422,7276,34775,27679,33276,25201,26330,32080,29076,28044,30162
28416,7276,34751,27721,33231,25157,26312,32012,29046,28009,30176
28427,7272,34796,27693,33206,25140,26318,31971,29046,28034,30148
28449,7278,34786,27633,33205,25119,26340,32001,29000,28051,30151
28445,7243,34847,27672,33206,25216,26282,32124,29223,28104,30145
28004,6973,34401,27699,33217,25139,26394,31976,29096,28026,29980
28436,7322,34803,27718,33294,25184,26397,32044,29070,28038,30135
28473,7241,34779,27735,33175,25172,26328,32035,29112,27977,30149
28435,7290,34873,27709,33254,25148,26358,32025,29073,28109,30148
28445,7297,34814,27671,33209,25159,26350,32000,29077,27968,30147
28426,7300,34779,27694,33229,25143,26305,32003,29088,28051,30157
28445,7286,34827,27686,33239,25082,26307,32039,29070,27989,30151
28437,7267,34782,27687,33249,25259,26405,32001,29051,27977,30167
28048,6957,34376,27703,33265,25179,26316,31996,29111,27973,29987
28423,7294,34817,27683,33204,25138,26334,31911,29042,27962,30148
28457,7267,34722,27583,33162,25216,26280,31937,29020,28009,30151
28464,7259,34802,27618,33145,25119,26271,32034,29028,27970,30153
28477,7294,34800,27739,33171,25178,26354,32001,29170,28051,30143
28427,7266,34826,27704,33212,25207,26375,32025,29137,27951,30158
28432,7264,34762,27686,33217,25141,26283,31989,29095,28055,30153
28449,7298,34779,27738,33206,25153,26309,32048,29061,27946,30138
27994,7000,34472,27662,33222,25207,26349,32051,29067,28061,29979
28455,7274,34761,27677,33249,25168,26409,32038,29064,28061,30148
28408,7242,34743,27720,33251,25215,26375,32106,29199,28107,30159
28430,7313,34825,27759,33271,25274,26315,31994,29110,27980,30143
